[
  {
    "name": "Orval Albertine Washington",
    "age": 28,
    "city": "Amsterdam"
  },
  {
    "name": "Fredericka Marcelo Torres",
    "age": 27,
    "city": "Utrecht"
  },
  {
    "name": "Holly Washington",
    "age": 37,
    "city": "Delft"
  },
  {
    "name": "Junko King",
    "age": 30,
    "city": "Sneek"
  },
  {
    "name": "Keisha Roberts",
    "age": 33,
    "city": "Groningen"
  },
  {
    "name": "Marcelo Hernandez",
    "age": 28,
    "city": "Amsterdam"
  },
  {
    "name": "Lisandra Wood",
    "age": 29,
    "city": "Haarlem"
  },
  {
    "name": "Marilou Sanders",
    "age": 27,
    "city": "Utrecht"
  },
  {
    "name": "Debbie Carter",
    "age": 25,
    "city": "Haarlem"
  },
  {
    "name": "Phylis Johnson",
    "age": 26,
    "city": "Haarlem"
  },
  {
    "name": "Stephine Clorinda Howard",
    "age": 31,
    "city": "Amsterdam"
  },
  {
    "name": "Lani Russell",
    "age": 30,
    "city": "Amsterdam"
  },
  {
    "name": "Refugia Carter",
    "age": 32,
    "city": "Utrecht"
  },
  {
    "name": "Pearline Griffin",
    "age": 29,
    "city": "Den Haag"
  },
  {
    "name": "Joie Nelson",
    "age": 28,
    "city": "Amsterdam"
  },
  {
    "name": "Lani Washington",
    "age": 24,
    "city": "Amsterdam"
  }
]
